module github.com/go-debos/fakemachine

go 1.15

require (
	github.com/alessio/shellescape v1.4.2
	github.com/docker/go-units v0.5.0
	github.com/jessevdk/go-flags v1.5.0
	github.com/klauspost/compress v1.15.3
	github.com/stretchr/testify v1.8.1
	github.com/surma/gocpio v1.1.0
	github.com/ulikunitz/xz v0.5.11
	golang.org/x/sys v0.0.0-20220412211240-33da011f77ad
)
